{
    "c2array": true,
    "size":[32,5,1],
    "data":[
[["MILLONETAS"],  [90], ["06110310"], ["06031003"], ["AMRCA"]],
[["CHIVAS"],  [90], ["01020002"], ["03000000"], ["GUADLAJRA"]],
[["DIABLO ROJ"],  [85], ["07030001"], ["03000000"], ["TLCA"]],
[["MAQUINA"], [90], ["03030200"], ["03000002"], ["CRZ AZL"]],
[["PUMA"],  [85], ["03010000"], ["06021002"], ["PUNAM"]],
[["LEONES"],  [59], ["03070800"], ["03060000"], ["LION"]],
[["PANDILLA"],  [46], ["01011010"], ["07001000"], ["MNTRRY"]],
[["TUZOS"],  [80], ["01110010"], ["03050511"], ["PCHCA"]],
[["MONARQUIA"],  [51], ["05040110"], ["05110511"], ["MRLIA"]],
[["CAMOTEROS"],  [62], ["05010400"], ["05110411"], ["PBLA"]],
[["ESCUALOS"],  [53], ["09020010"], ["09020100"], ["VRCRZ"]],
[["RESTIG"],  [61], ["07040203"], ["03000202"], ["TGRES"]],
[["XOLOS"],  [62], ["03041101"], ["03000101"], ["TJNA"]],
[["ZORROS"],  [66], ["04021111"], ["11001111"], ["ATLS"]],
[["LAGUNEROS"],  [42], ["02010800"], ["03111111"], ["SNTS LGNA"]],
[["UDEG"],  [53], ["01040111"], ["03110011"], ["LENS NEGRS"]],
[["CHIPS"],  [52], ["03090808"], ["03000000"], ["CHIPS JGR"]],
[["GALLOS Q"],  [68], ["01120411"], ["01110011"], ["QRTRO"]],
[["ALTMES"],  [61], ["02110000"], ["03101010"], ["ALTMRA"]],
[["POTROS DE H"],  [57], ["08000102"], ["07140114"], ["ATLNTE"]],
[["TUNEROS"],  [58], ["01010202"], ["03000000"], ["ATL. SN LS"]],
[["LOBOS"],  [61], ["03020000"], ["03010101"], ["LBS BUUAP"]],
[["TOROS"],  [65], ["09071502"], ["09000200"], ["CLAYA"]],
[["IRPTA"],  [55], ["03111111"], ["03111100"], ["IRPTO"]],
[["MRDAY"],  [61], ["03010000"], ["03141400"], ["MRDA"]],
[["RAYOS"],  [60], ["01040100"], ["01011111"], ["NCXA"]],
[["OXCAL"],  [49], ["03120511"], ["07000100"], ["OXCA"]],
[["GRAN PEZ"],  [47], ["03030000"], ["03111111"], ["SNLOA"]],
[["JAIBA BRAVA"],  [49], ["05011200"], ["11010001"], ["TPIC"]],
[["CORRE NARANJA"],  [58], ["06100505"], ["06050000"], ["UAT"]],
[["MINEROS Z"],  [50], ["03000100"], ["03151200"], ["ZCTCAS"]],
[["ZACANEROS"],  [43], ["07010800"], ["07110811"], ["ZCTPEC"]]
]
}
